<svg width="30" height="30" viewBox="0 0 30 30" xmlns="http://www.w3.org/2000/svg">
  <path d="M11.02 15.347c-1.76 0-3.194-1.434-3.194-3.195 0-1.762 1.433-3.195 3.195-3.195 1.763 0 3.195 1.433 3.195 3.195 0 1.76-1.433 3.195-3.194 3.195zm0-5.058c-1.027 0-1.863.835-1.863 1.862 0 1.027.836 1.863 1.864 1.863 1.03 0 1.864-.836 1.864-1.863 0-1.027-.836-1.863-1.863-1.863zM19 26h7v-3l-7.26-6.938L14 21l5 5zm-15.33-.317l6.656-7.41c.12-.133.288-.212.467-.22.175-.008.353.058.484.18L13 20l5.25-5.327c.252-.248.654-.257.915-.02L26 21c.14.126.794.635.794.824v4.303c0 .368-.297.666-.665.666h-7.41c-.17 0-1.596-.677-1.72-.793l-6-6-6.34 6.573c-.13.146-1.235-.617-.99-.89zM27 3v24H3V3h24zM4 26h22V4H4v22z" fill-rule="evenodd"/>
</svg>
